{"name":"GET Method Test","id":"testing-an-api-reqres.in-with-serenity-screenplay-rest.;get-method-test","testSteps":[{"number":1,"description":"Given that the user wants to make a request","duration":1213,"startTime":"2022-04-13T11:58:04.560544800-05:00[America/Bogota]","result":"SUCCESS","precondition":false,"level":0,"children":[{"number":2,"description":"User connect","duration":724,"startTime":"2022-04-13T11:58:05.040127100-05:00[America/Bogota]","result":"SUCCESS","precondition":false,"level":1}]},{"number":3,"description":"When he makes the request, using the GET method","duration":3251,"startTime":"2022-04-13T11:58:05.784335600-05:00[America/Bogota]","result":"SUCCESS","precondition":false,"level":0,"children":[{"number":4,"description":"User using get method","duration":3229,"startTime":"2022-04-13T11:58:05.802517400-05:00[America/Bogota]","result":"SUCCESS","precondition":false,"level":1,"children":[{"number":5,"description":"user executes a GET on the resource users?page\u003d2","duration":3179,"startTime":"2022-04-13T11:58:05.851310400-05:00[America/Bogota]","result":"SUCCESS","precondition":false,"level":2,"children":[{"number":6,"description":"GET https://reqres.in/api/users?page\u003d2\r","duration":0,"startTime":"2022-04-13T11:58:09.031067800-05:00[America/Bogota]","result":"SUCCESS","restQuery":{"method":"GET","path":"https://reqres.in/api/users?page\u003d2\r","content":"\r","contentType":"application/json","requestHeaders":"Accept\u003d*/*\r\n\t\t\t\tContent-Type\u003dapplication/json; charset\u003dUTF-8\r","requestCookies":"\r","responseHeaders":"Date: Wed, 13 Apr 2022 16:58:06 GMT\r\nContent-Type: application/json; charset\u003dutf-8\r\nTransfer-Encoding: chunked\r\nConnection: keep-alive\r\nX-Powered-By: Express\r\nAccess-Control-Allow-Origin: *\r\nEtag: W/\"406-ut0vzoCuidvyMf8arZpMpJ6ZRDw\"\r\nVia: 1.1 vegur\r\nCache-Control: max-age\u003d14400\r\nCF-Cache-Status: HIT\r\nAge: 4504\r\nExpect-CT: max-age\u003d604800, report-uri\u003d\"https://report-uri.cloudflare.com/cdn-cgi/beacon/expect-ct\"\r\nReport-To: {\"endpoints\":[{\"url\":\"https:\\/\\/a.nel.cloudflare.com\\/report\\/v3?s\u003d3BU3yDAZrJplxoV8yQYIGJDfFtQWZNRrgYcgq3cpTEHr2cA6ctND5amDx2MJCsLkZ3shbbHjR95oof3w4itJNUfEc9c2nOAooJV4qYqLiaSAnENB%2FSLKy78jDzk%3D\"}],\"group\":\"cf-nel\",\"max_age\":604800}\r\nNEL: {\"success_fraction\":0,\"report_to\":\"cf-nel\",\"max_age\":604800}\r\nVary: Accept-Encoding\r\nServer: cloudflare\r\nCF-RAY: 6fb5be9bcf858dba-MIA\r\nContent-Encoding: gzip\r\nalt-svc: h3\u003d\":443\"; ma\u003d86400, h3-29\u003d\":443\"; ma\u003d86400\r","responseCookies":"\r","responseBody":"{\n    \"page\": 2,\n    \"per_page\": 6,\n    \"total\": 12,\n    \"total_pages\": 2,\n    \"data\": [\n        {\n            \"id\": 7,\n            \"email\": \"michael.lawson@reqres.in\",\n            \"first_name\": \"Michael\",\n            \"last_name\": \"Lawson\",\n            \"avatar\": \"https://reqres.in/img/faces/7-image.jpg\"\n        },\n        {\n            \"id\": 8,\n            \"email\": \"lindsay.ferguson@reqres.in\",\n            \"first_name\": \"Lindsay\",\n            \"last_name\": \"Ferguson\",\n            \"avatar\": \"https://reqres.in/img/faces/8-image.jpg\"\n        },\n        {\n            \"id\": 9,\n            \"email\": \"tobias.funke@reqres.in\",\n            \"first_name\": \"Tobias\",\n            \"last_name\": \"Funke\",\n            \"avatar\": \"https://reqres.in/img/faces/9-image.jpg\"\n        },\n        {\n            \"id\": 10,\n            \"email\": \"byron.fields@reqres.in\",\n            \"first_name\": \"Byron\",\n            \"last_name\": \"Fields\",\n            \"avatar\": \"https://reqres.in/img/faces/10-image.jpg\"\n        },\n        {\n            \"id\": 11,\n            \"email\": \"george.edwards@reqres.in\",\n            \"first_name\": \"George\",\n            \"last_name\": \"Edwards\",\n            \"avatar\": \"https://reqres.in/img/faces/11-image.jpg\"\n        },\n        {\n            \"id\": 12,\n            \"email\": \"rachel.howell@reqres.in\",\n            \"first_name\": \"Rachel\",\n            \"last_name\": \"Howell\",\n            \"avatar\": \"https://reqres.in/img/faces/12-image.jpg\"\n        }\n    ],\n    \"support\": {\n        \"url\": \"https://reqres.in/#support-heading\",\n        \"text\": \"To keep ReqRes free, contributions towards server costs are appreciated!\"\n    }\n}","statusCode":200},"precondition":false,"level":3}]}]}]},{"number":7,"description":"Then the service return the data","duration":1564,"startTime":"2022-04-13T11:58:09.039047200-05:00[America/Bogota]","result":"SUCCESS","precondition":false,"level":0,"children":[{"number":8,"description":"Then Status code should be (200)","duration":5,"startTime":"2022-04-13T11:58:09.660901300-05:00[America/Bogota]","result":"SUCCESS","precondition":false,"level":1},{"number":9,"description":"Then Total Registers should be (12)","duration":1,"startTime":"2022-04-13T11:58:09.668879600-05:00[America/Bogota]","result":"SUCCESS","precondition":false,"level":1},{"number":10,"description":"Then Support URL should be a string containing \u0027reqres.in\u0027","duration":0,"startTime":"2022-04-13T11:58:09.672868700-05:00[America/Bogota]","result":"SUCCESS","precondition":false,"level":1},{"number":11,"description":"Then First name should be \u0027Byron\u0027","duration":0,"startTime":"2022-04-13T11:58:09.675861400-05:00[America/Bogota]","result":"SUCCESS","precondition":false,"level":1},{"number":12,"description":"Then total per pag should be (6)","duration":1,"startTime":"2022-04-13T11:58:09.677855600-05:00[America/Bogota]","result":"SUCCESS","precondition":false,"level":1},{"number":13,"description":"All users on page 2 should be returned","duration":822,"startTime":"2022-04-13T11:58:09.686831300-05:00[America/Bogota]","result":"SUCCESS","precondition":false,"level":1},{"number":14,"description":"status code","duration":17,"startTime":"2022-04-13T11:58:10.510374200-05:00[America/Bogota]","result":"SUCCESS","precondition":false,"level":1},{"number":15,"description":"User details should be correct","duration":70,"startTime":"2022-04-13T11:58:10.530033600-05:00[America/Bogota]","result":"SUCCESS","precondition":false,"level":1}]}],"userStory":{"id":"testing-an-api-reqres.in-with-serenity-screenplay-rest.","storyName":"Testing an API reqres.in with Serenity Screenplay Rest.","displayName":"Testing an API reqres.in with Serenity Screenplay Rest.","path":"api_test.feature","type":"feature"},"featureTag":{"name":"Testing an API reqres.in with Serenity Screenplay Rest.","type":"feature","displayName":"Testing an API reqres.in with Serenity Screenplay Rest."},"title":"GET Method Test","description":"","tags":[{"name":"Testing an API reqres.in with Serenity Screenplay Rest.","type":"feature","displayName":"Testing an API reqres.in with Serenity Screenplay Rest."},{"name":"GETMethod","type":"tag","displayName":"GETMethod"}],"startTime":"2022-04-13T11:58:04.438679700-05:00[America/Bogota]","duration":6169,"projectKey":"","isManualTestingUpToDate":false,"manual":false,"testSource":"Cucumber","actors":[{"name":"user","can":["call an API at https://reqres.in/api/"]}],"result":"SUCCESS"}